{
  "total": 159,
  "request_uri": "https://collectionapi.metmuseum.org/public/collection/v1/search?departmentId=10&q=cat",
  "objectIDs":[
    "545971",
    "544118",
    "570749",
    "552042",
    "570720",
    "552027",
    "552028",
    "570722",
    "570737",
    "570744",
    "570740",
    "570721",
    "572105",
    "544039",
    "545725",
    "544120",
    "545391",
    "552647",
    "552646",
    "570329",
    "544119",
    "546218",
    "547552",
    "548564",
    "546247",
    "545955",
    "744564",
    "544509",
    "550922",
    "552443",
    "557817",
    "548681",
    "566488",
    "551093",
    "557764",
    "550778",
    "545681",
    "572106",
    "570729",
    "570731",
    "573369",
    "577664",
    "571798",
    "553799",
    "570730",
    "548683",
    "570732",
    "546074",
    "570711",
    "572107",
    "570750",
    "552037",
    "552026",
    "570719",
    "570738",
    "558322",
    "545720",
    "557635",
    "560759",
    "545494",
    "591598",
    "569882",
    "552029",
    "559423",
    "552058",
    "547604",
    "575569",
    "545552",
    "570733",
    "551774",
    "558306",
    "555715",
    "547870",
    "590944",
    "569544",
    "547867",
    "548215",
    "551626",
    "547617",
    "545970",
    "545165",
    "543948",
    "548426",
    "548429",
    "591595",
    "548852",
    "571405",
    "550109",
    "570309",
    "547634",
    "547635",
    "547626",
    "554432",
    "555174",
    "554597",
    "561000",
    "548703",
    "544360",
    "554406",
    "554545",
    "554544",
    "554543",
    "767504",
    "547754",
    "548525",
    "767503",
    "552805",
    "547871",
    "544751",
    "545320",
    "550894",
    "550961",
    "552442",
    "548437",
    "555567",
    "555566",
    "546115",
    "552786",
    "549698",
    "550062",
    "552371",
    "550934",
    "671414",
    "552468",
    "570674",
    "570696",
    "551039",
    "544117",
    "570718",
    "570712",
    "545562",
    "548297",
    "546195",
    "552071",
    "553490",
    "547151",
    "568282",
    "572263",
    "573623",
    "573624",
    "557953",
    "569207",
    "571186",
    "571222",
    "587599",
    "587606",
    "568315",
    "568317",
    "568325",
    "571217",
    "571202",
    "587601",
    "587600",
    "568292",
    "568293",
    "568320",
    "568308",
    "568318",
    "568323"
  ]
}
