{
  "total":1946,
  "request_uri": "https://collectionapi.metmuseum.org/public/collection/v1/search?departmentId=11&q=cat",
  "objectIDs": [
    "435852",
    "437986",
    "437376",
    "435956",
    "435946",
    "436433",
    "435759",
    "437422",
    "437250",
    "437874",
    "436545",
    "437327",
    "437747",
    "438022",
    "436511",
    "438813",
    "438021",
    "437372",
    "437749",
    "437523",
    "436453",
    "437879",
    "436621",
    "436324",
    "436319",
    "436051",
    "436891",
    "438338",
    "435902",
    "437646",
    "435766",
    "436490",
    "435804",
    "441965",
    "437526",
    "678013",
    "436966",
    "437507",
    "435651",
    "437014",
    "437869",
    "437394",
    "437699",
    "435875",
    "436096",
    "437381",
    "437500",
    "436335",
    "437769",
    "436253",
    "436895",
    "437326",
    "436052",
    "437790",
    "436177",
    "436489",
    "437423",
    "437849",
    "438130",
    "438116",
    "438129",
    "438103",
    "816629",
    "435717",
    "438101",
    "438102",
    "438100",
    "436205",
    "436069",
    "437851",
    "436301",
    "438127",
    "438126",
    "438123",
    "435722",
    "436443",
    "437544",
    "437298",
    "436444",
    "437528",
    "437193",
    "436652",
    "437824",
    "436061",
    "437205",
    "437373",
    "435642",
    "437000",
    "437335",
    "436659",
    "436263",
    "436264",
    "437677",
    "437678",
    "437679",
    "437676",
    "436670",
    "435706",
    "436667",
    "435901",
    "435887",
    "437703",
    "435728",
    "436834",
    "436816",
    "839041",
    "435853",
    "438107",
    "436516",
    "437822",
    "437971",
    "436607",
    "437955",
    "436935",
    "437034",
    "435753",
    "437895",
    "436975",
    "437891",
    "435868",
    "437675",
    "436162",
    "712539",
    "436571",
    "436102",
    "435984",
    "436005",
    "436003",
    "436984",
    "440900",
    "435802",
    "438818",
    "436950",
    "436144",
    "436504",
    "435666",
    "437658",
    "436529",
    "438490",
    "436678",
    "435877",
    "436000",
    "436139",
    "436173",
    "436132",
    "436960",
    "437535",
    "436155",
    "436007",
    "436014",
    "437329",
    "436946",
    "438822",
    "435888",
    "436002",
    "436252",
    "437588",
    "436141",
    "435872",
    "437455",
    "436121",
    "437487",
    "435848",
    "436122",
    "436004",
    "438112",
    "437926",
    "437674",
    "437853",
    "435896",
    "436006",
    "436095",
    "436001",
    "437836",
    "435714",
    "436513",
    "437304",
    "435909",
    "436483",
    "436024",
    "436658",
    "435881",
    "436123",
    "435879",
    "436149",
    "435967",
    "436947",
    "436997",
    "437434",
    "436114",
    "436018",
    "436138",
    "436127",
    "437306",
    "437870",
    "435981",
    "437229",
    "437396",
    "436128",
    "436534",
    "437452",
    "436527",
    "437430",
    "435978",
    "436448",
    "437257",
    "437348",
    "437345",
    "436176",
    "435963",
    "435884",
    "438120",
    "436322",
    "437059",
    "436945",
    "437437",
    "437256",
    "435873",
    "436023",
    "436798",
    "435976",
    "436949",
    "436254",
    "436502",
    "436920",
    "436135",
    "436258",
    "436063",
    "437417",
    "437360",
    "436331",
    "436953",
    "436008",
    "436157",
    "435581",
    "437081",
    "436171",
    "437342",
    "436159",
    "436126",
    "436839",
    "437501",
    "436696",
    "437812",
    "437791",
    "436572",
    "437878",
    "436140",
    "437899",
    "435580",
    "436093",
    "436016",
    "436792",
    "436017",
    "438688",
    "436165",
    "436262",
    "438545",
    "436896",
    "436803",
    "436022",
    "435718",
    "437826",
    "437302",
    "436954",
    "436142",
    "436166",
    "436769",
    "435980",
    "438449",
    "437156",
    "437490",
    "436136",
    "436115",
    "435965",
    "436256",
    "435870",
    "435880",
    "436959",
    "436150",
    "436174",
    "436156",
    "436172",
    "436131",
    "438128",
    "436892",
    "436019",
    "436982",
    "436125",
    "436241",
    "437343",
    "436153",
    "435615",
    "435948",
    "438105",
    "438110",
    "436532",
    "437391",
    "436179",
    "436143",
    "438819",
    "436011",
    "436934",
    "436064",
    "440568",
    "436151",
    "437168",
    "437527",
    "437016",
    "437055",
    "437255",
    "437789",
    "437925",
    "436675",
    "437248",
    "436124",
    "435738",
    "435907",
    "436101",
    "438106",
    "438776",
    "437073",
    "437609",
    "436099",
    "436958",
    "438113",
    "436992",
    "436987",
    "436967",
    "437371",
    "437276",
    "435859",
    "437612",
    "437152",
    "437733",
    "436847",
    "436797",
    "437072",
    "437488",
    "436432",
    "435761",
    "437407",
    "436604",
    "437403",
    "438466",
    "435772",
    "437062",
    "435977",
    "438377",
    "438722",
    "437350",
    "436617",
    "436145",
    "436650",
    "436163",
    "437071",
    "435971",
    "437395",
    "435883",
    "438132",
    "436727",
    "436062",
    "437023",
    "436328",
    "437221",
    "436517",
    "437210",
    "436666",
    "435915",
    "436759",
    "438691",
    "435656",
    "435723",
    "436649",
    "435659",
    "436510",
    "437451",
    "437882",
    "437586",
    "436071",
    "437698",
    "437491",
    "435733",
    "437017",
    "436054",
    "437894",
    "436028",
    "436261",
    "436255",
    "437651",
    "437222",
    "437768",
    "437909",
    "437018",
    "436027",
    "436026",
    "437408",
    "436668",
    "437412",
    "437413",
    "437230",
    "437420",
    "435757",
    "437972",
    "438379",
    "435808",
    "436969",
    "437540",
    "435912",
    "435731",
    "437414",
    "435644",
    "440985",
    "436907",
    "436246",
    "436214",
    "436416",
    "436428",
    "436429",
    "436217",
    "436055",
    "436072",
    "436056",
    "435957",
    "435955",
    "435583",
    "437446",
    "437364",
    "437579",
    "437583",
    "437652",
    "438415",
    "437502",
    "436900",
    "437038",
    "438375",
    "437912",
    "436239",
    "437144",
    "437258",
    "437743",
    "437939",
    "437531",
    "438115",
    "438117",
    "438118",
    "437978",
    "437145",
    "438726",
    "438727",
    "437780",
    "437776",
    "634108",
    "435641",
    "437497",
    "438002",
    "437999",
    "437990",
    "441024",
    "438009",
    "438417",
    "438817",
    "435882",
    "438011",
    "438031",
    "436321",
    "816621",
    "438814",
    "437432",
    "435844",
    "436449",
    "437984",
    "436506",
    "435618",
    "828497",
    "441226",
    "435876",
    "436603",
    "436085",
    "441933",
    "436581",
    "437819",
    "437164",
    "437988",
    "436282",
    "437854",
    "437995",
    "437379",
    "437835",
    "437384",
    "436198",
    "436752",
    "436808",
    "438014",
    "438954",
    "437837",
    "436576",
    "437803",
    "436819",
    "436544",
    "441115",
    "435713",
    "437997",
    "436528",
    "435970",
    "437175",
    "436838",
    "436546",
    "435621",
    "436236",
    "641257",
    "435851",
    "435864",
    "438635",
    "669033",
    "436820",
    "436944",
    "827660",
    "438551",
    "435914",
    "436542",
    "437989",
    "435878",
    "438000",
    "437996",
    "436906",
    "437987",
    "435809",
    "437994",
    "435600",
    "440464",
    "437177",
    "692597",
    "435770",
    "782304",
    "438017",
    "436038",
    "436794",
    "435739",
    "437317",
    "436965",
    "437974",
    "437392",
    "435702",
    "436541",
    "436575",
    "436656",
    "436573",
    "436170",
    "435807",
    "435885",
    "436293",
    "629928",
    "437398",
    "438857",
    "437447",
    "437310",
    "436708",
    "436543",
    "437097",
    "437382",
    "436323",
    "437991",
    "437286",
    "436431",
    "436817",
    "437480",
    "437242",
    "436097",
    "712013",
    "435636",
    "435874",
    "439631",
    "437518",
    "441379",
    "436795",
    "439343",
    "679844",
    "438821",
    "438012",
    "437163",
    "438016",
    "437792",
    "435817",
    "770595",
    "437307",
    "437654",
    "435810",
    "436053",
    "438010",
    "438013",
    "437903",
    "438434",
    "437098",
    "436558",
    "437993",
    "438665",
    "438381",
    "435897",
    "437920",
    "435966",
    "437470",
    "436835",
    "436536",
    "437489",
    "435608",
    "761570",
    "437880",
    "436105",
    "437349",
    "436636",
    "437630",
    "437850",
    "438816",
    "436952",
    "437838",
    "436100",
    "435867",
    "435869",
    "438603",
    "437508",
    "816624",
    "439327",
    "435797",
    "435799",
    "435798",
    "437385",
    "435801",
    "436451",
    "435680",
    "436015",
    "437181",
    "437900",
    "435800",
    "435826",
    "435908",
    "437691",
    "436482",
    "437692",
    "437300",
    "437099",
    "435922",
    "436703",
    "437153",
    "437377",
    "436243",
    "441755",
    "437161",
    "437611",
    "436049",
    "437839",
    "436579",
    "436041",
    "438641",
    "437694",
    "438677",
    "438015",
    "436257",
    "437328",
    "436917",
    "438640",
    "438643",
    "438642",
    "436911",
    "436512",
    "437457",
    "436515",
    "435640",
    "435828",
    "441768",
    "437057",
    "436518",
    "437866",
    "438690",
    "438018",
    "436865",
    "437690",
    "437061",
    "436235",
    "435918",
    "437689",
    "437512",
    "436851",
    "437332",
    "437301",
    "436440",
    "437814",
    "435725",
    "435996",
    "437695",
    "437693",
    "435994",
    "437755",
    "437344",
    "437094",
    "436964",
    "437534",
    "436091",
    "437881",
    "437056",
    "436266",
    "437312",
    "436455",
    "438670",
    "671456",
    "436623",
    "438001",
    "437514",
    "436294",
    "436625",
    "436030",
    "436634",
    "437956",
    "437998",
    "436107",
    "436598",
    "437052",
    "435975",
    "436021",
    "435762",
    "436914",
    "436116",
    "436771",
    "437158",
    "436525",
    "436986",
    "435724",
    "435900",
    "437305",
    "437042",
    "435691",
    "436175",
    "437311",
    "435988",
    "436152",
    "437378",
    "437314",
    "435985",
    "436574",
    "436932",
    "437468",
    "435831",
    "435754",
    "436706",
    "435886",
    "436284",
    "437316",
    "437827",
    "436524",
    "436520",
    "437756",
    "437750",
    "437265",
    "437559",
    "437876",
    "436215",
    "437642",
    "435590",
    "437459",
    "437101",
    "839044",
    "816522",
    "437173",
    "437237",
    "438644",
    "435763",
    "712946",
    "436491",
    "438033",
    "437428",
    "436120",
    "438156",
    "436230",
    "437479",
    "436089",
    "435990",
    "437937",
    "436875",
    "435989",
    "655744",
    "437354",
    "436531",
    "436815",
    "437157",
    "436414",
    "437655",
    "438136",
    "436850",
    "436317",
    "437960",
    "436610",
    "437961",
    "436314",
    "436207",
    "435649",
    "436315",
    "440729",
    "828241",
    "436833",
    "437548",
    "435672",
    "437340",
    "436686",
    "435773",
    "435987",
    "436569",
    "438144",
    "436653",
    "436951",
    "436897",
    "435972",
    "437424",
    "435991",
    "436446",
    "436316",
    "436901",
    "435720",
    "435736",
    "436887",
    "437628",
    "437627",
    "436351",
    "436368",
    "437938",
    "435735",
    "438098",
    "437225",
    "436710",
    "435719",
    "437636",
    "437975",
    "435695",
    "436233",
    "437167",
    "436216",
    "436787",
    "436884",
    "436937",
    "435585",
    "436421",
    "435854",
    "436274",
    "436227",
    "437465",
    "437641",
    "436397",
    "436398",
    "436885",
    "435660",
    "440726",
    "437174",
    "435694",
    "438099",
    "438518",
    "436229",
    "436693",
    "437299",
    "437425",
    "436526",
    "436180",
    "435944",
    "436067",
    "437951",
    "437868",
    "665702",
    "437067",
    "437682",
    "436059",
    "437905",
    "436715",
    "436714",
    "437962",
    "436275",
    "437950",
    "437166",
    "436717",
    "436855",
    "435933",
    "435785",
    "435697",
    "436694",
    "435941",
    "437324",
    "437351",
    "437213",
    "437483",
    "436279",
    "438887",
    "436872",
    "437663",
    "436452",
    "437211",
    "437863",
    "436741",
    "437660",
    "437359",
    "437530",
    "437007",
    "769297",
    "436846",
    "436825",
    "437053",
    "438738",
    "436154",
    "438820",
    "437798",
    "436430",
    "437877",
    "437980",
    "438815",
    "437536",
    "437549",
    "435983",
    "437460",
    "437833",
    "437640",
    "437696",
    "436110",
    "437208",
    "435855",
    "437078",
    "438951",
    "437800",
    "436201",
    "436463",
    "436464",
    "436184",
    "436926",
    "436467",
    "436465",
    "436460",
    "436462",
    "436466",
    "436461",
    "437590",
    "436963",
    "437146",
    "436690",
    "436426",
    "437069",
    "437587",
    "441183",
    "436079",
    "437448",
    "438949",
    "436818",
    "436918",
    "435839",
    "437303",
    "436418",
    "436435",
    "435904",
    "435744",
    "435962",
    "436622",
    "437244",
    "436106",
    "436454",
    "436840",
    "436957",
    "436552",
    "436599",
    "437887",
    "437083",
    "437436",
    "435849",
    "437846",
    "436929",
    "435769",
    "436832",
    "439065",
    "436580",
    "780292",
    "437431",
    "437532",
    "439933",
    "437944",
    "436484",
    "437896",
    "437475",
    "437472",
    "436086",
    "437936",
    "438025",
    "437589",
    "435898",
    "436551",
    "437729",
    "436688",
    "436327",
    "436588",
    "437592",
    "438953",
    "439977",
    "435961",
    "441969",
    "437867",
    "437159",
    "437433",
    "437323",
    "441967",
    "436042",
    "437397",
    "437259",
    "839045",
    "816523",
    "436090",
    "437165",
    "437386",
    "436624",
    "436533",
    "436616",
    "438374",
    "436535",
    "438952",
    "437209",
    "437513",
    "439844",
    "436305",
    "436039",
    "438427",
    "439117",
    "436442",
    "437261",
    "437180",
    "437764",
    "435602",
    "442761",
    "436961",
    "437942",
    "437388",
    "437140",
    "437966",
    "437864",
    "437607",
    "437680",
    "437686",
    "437754",
    "436782",
    "437794",
    "437795",
    "436208",
    "438159",
    "437383",
    "437325",
    "437888",
    "437393",
    "436013",
    "437093",
    "437834",
    "437529",
    "437585",
    "437439",
    "437283",
    "436991",
    "437380",
    "435750",
    "437521",
    "437046",
    "436637",
    "437859",
    "436158",
    "437464",
    "438032",
    "441769",
    "435755",
    "437788",
    "441227",
    "440723",
    "437461",
    "437656",
    "437456",
    "436295",
    "436648",
    "670765",
    "438724",
    "437823",
    "437865",
    "437683",
    "437028",
    "435604",
    "437429",
    "438543",
    "437593",
    "435647",
    "437941",
    "437217",
    "437054",
    "436570",
    "435871",
    "436210",
    "437638",
    "435716",
    "437263",
    "435729",
    "436596",
    "435683",
    "436259",
    "437346",
    "436662",
    "437347",
    "436618",
    "436661",
    "436309",
    "437309",
    "435923",
    "438158",
    "436068",
    "782308",
    "435866",
    "439344",
    "436619",
    "437685",
    "437427",
    "436931",
    "436930",
    "436009",
    "439122",
    "436880",
    "436035",
    "435740",
    "436647",
    "435830",
    "435894",
    "436040",
    "435658",
    "437172",
    "438605",
    "436912",
    "438023",
    "437954",
    "437890",
    "437389",
    "436485",
    "435633",
    "436973",
    "437082",
    "437598",
    "435749",
    "436742",
    "436709",
    "436439",
    "437969",
    "436325",
    "437525",
    "435752",
    "435986",
    "436785",
    "437915",
    "435746",
    "437893",
    "436427",
    "436620",
    "437842",
    "438407",
    "438546",
    "438754",
    "436704",
    "436333",
    "435747",
    "437889",
    "437001",
    "436025",
    "436012",
    "436211",
    "435745",
    "437520",
    "626692",
    "437070",
    "436784",
    "437898",
    "437245",
    "435992",
    "435906",
    "436676",
    "436567",
    "436137",
    "441672",
    "436530",
    "435578",
    "436843",
    "435903",
    "437519",
    "435622",
    "436034",
    "435741",
    "647338",
    "436423",
    "437983",
    "437510",
    "437763",
    "436871",
    "436909",
    "440847",
    "438761",
    "435614",
    "437308",
    "435846",
    "435670",
    "437777",
    "436638",
    "438169",
    "441104",
    "436707",
    "436222",
    "435594",
    "438590",
    "435737",
    "435665",
    "496203",
    "437387",
    "747607",
    "437547",
    "437820",
    "436498",
    "436590",
    "435945",
    "436594",
    "437871",
    "437284",
    "437855",
    "437338",
    "438616",
    "657683",
    "436508",
    "437524",
    "437481",
    "437285",
    "437533",
    "437885",
    "438467",
    "435707",
    "436705",
    "437450",
    "436805",
    "436757",
    "437659",
    "436990",
    "437884",
    "437235",
    "438850",
    "436994",
    "437315",
    "438134",
    "436611",
    "437330",
    "436821",
    "436635",
    "436605",
    "436415",
    "436471",
    "437254",
    "437264",
    "437141",
    "437761",
    "437545",
    "436976",
    "436680",
    "437390",
    "436861",
    "437517",
    "437473",
    "436374",
    "436373",
    "437914",
    "437883",
    "436559",
    "437810",
    "687513",
    "436326",
    "436538",
    "437841",
    "436213",
    "437449",
    "435742",
    "437182",
    "438376",
    "436913",
    "439553",
    "437033",
    "436968",
    "436836",
    "437748",
    "437466",
    "437339",
    "435891",
    "436613",
    "436289",
    "436791",
    "436985",
    "437454",
    "436725",
    "437006",
    "435595",
    "440888",
    "437273",
    "437021",
    "436098",
    "439081",
    "436273",
    "436234",
    "436405",
    "436370",
    "436350",
    "436361",
    "436066",
    "435570",
    "435845",
    "437653",
    "437075",
    "437142",
    "437485",
    "436492",
    "437657",
    "437604",
    "440727",
    "435920",
    "437786",
    "435575",
    "437797",
    "435940",
    "436765",
    "436878",
    "436311",
    "436691",
    "726543",
    "438026",
    "435824",
    "437476",
    "437477",
    "435765",
    "436509",
    "436244",
    "436904",
    "435623",
    "436905",
    "435576",
    "438024",
    "435756",
    "437744",
    "437290",
    "436910",
    "436948",
    "437399",
    "437402",
    "436183",
    "436802",
    "437029",
    "436724",
    "436606",
    "436242",
    "436298",
    "436281",
    "436181",
    "436277",
    "435787",
    "435782",
    "437484",
    "437765",
    "437668",
    "437486",
    "441364",
    "437775",
    "436366",
    "436376",
    "436639",
    "435609",
    "435610",
    "437048",
    "437785",
    "436203",
    "435999",
    "437482",
    "435661",
    "435662",
    "435611",
    "437234",
    "435837",
    "436568",
    "436793",
    "436597",
    "436037",
    "436033",
    "436722",
    "438385",
    "436260",
    "438027",
    "439120",
    "436500",
    "437843",
    "437409",
    "437830",
    "436767",
    "437503",
    "437410",
    "436103",
    "437639",
    "437804",
    "436903",
    "437745",
    "437509",
    "437610",
    "437542",
    "436845",
    "437148",
    "437406",
    "441374",
    "436550",
    "435639",
    "436283",
    "435650",
    "816519",
    "436547",
    "436899",
    "436664",
    "436628",
    "437872",
    "435685",
    "436673",
    "436633",
    "436612",
    "436651",
    "436860",
    "436919",
    "436862",
    "435925",
    "436219",
    "436306",
    "436348",
    "436367",
    "436355",
    "436058",
    "435936",
    "435932",
    "435942",
    "435939",
    "435926",
    "435952",
    "435832",
    "435758",
    "437353",
    "437068",
    "437959",
    "437269",
    "437783",
    "437632",
    "437904",
    "436977",
    "437199",
    "436182",
    "436378",
    "435686",
    "435624",
    "435721",
    "435788",
    "437076",
    "437320",
    "435919",
    "436718",
    "436924",
    "436779",
    "436711",
    "437226",
    "437664",
    "435726",
    "437176",
    "436307",
    "437030",
    "436687",
    "436721",
    "437796",
    "437831",
    "437892",
    "437435",
    "437039",
    "436642",
    "436178",
    "438020",
    "436104",
    "436801",
    "437260",
    "435997",
    "437873",
    "437426",
    "436548",
    "435899",
    "435760",
    "436267",
    "438378",
    "437322",
    "436888",
    "436657",
    "437964",
    "437331",
    "437766",
    "438737",
    "437190",
    "437065",
    "435857",
    "437438",
    "437102",
    "436830",
    "436853",
    "436501",
    "436876",
    "435813",
    "437040",
    "437239",
    "437722",
    "438139",
    "437227",
    "437236",
    "435829",
    "436554",
    "436238",
    "435634",
    "435698",
    "435696",
    "436695",
    "436768",
    "435841",
    "436377",
    "435924",
    "435791",
    "437139",
    "437253",
    "437224",
    "437773",
    "435727",
    "438948",
    "436280",
    "436809",
    "436268",
    "437047",
    "436713",
    "435821",
    "435625",
    "436844",
    "436469",
    "435931",
    "436470",
    "436220",
    "436352",
    "436365",
    "435792",
    "435784",
    "435927",
    "436776",
    "437801",
    "437793",
    "437799",
    "437809",
    "437811",
    "437813",
    "435838",
    "437595",
    "436660",
    "435626",
    "436537",
    "437594",
    "816618",
    "435743",
    "436078",
    "436869",
    "436549",
    "436302",
    "436441",
    "435993",
    "437848",
    "437860",
    "438947",
    "436831",
    "437191",
    "437474",
    "436092",
    "437147",
    "437405",
    "437844",
    "436320",
    "436202",
    "436353",
    "436109",
    "435928",
    "437080",
    "437374",
    "437252",
    "437907",
    "437268",
    "438559",
    "438824",
    "436781",
    "435929",
    "435930",
    "437216",
    "436344",
    "436522",
    "436859",
    "435856",
    "435671",
    "435974",
    "435774",
    "437462",
    "437643",
    "437916",
    "435573",
    "436810",
    "724811",
    "437965",
    "437262",
    "436595",
    "437701",
    "437977",
    "437240",
    "436593",
    "437852",
    "436677",
    "436338",
    "437784",
    "436955",
    "437779",
    "436587",
    "438387",
    "437596",
    "702752",
    "435700",
    "436870",
    "436928",
    "436318",
    "435781",
    "435699",
    "437096",
    "438389",
    "437606",
    "437045",
    "437970",
    "437170",
    "437602",
    "436631",
    "437185",
    "435892",
    "437458",
    "437757",
    "437725",
    "441230",
    "441353",
    "437292",
    "435818",
    "437074",
    "437051",
    "436956",
    "437178",
    "435921",
    "437206",
    "437506",
    "437875",
    "438615",
    "437845",
    "436553",
    "435704",
    "436410",
    "435603",
    "437050",
    "437546",
    "437862",
    "436837",
    "437218",
    "435673",
    "435968",
    "435779",
    "437847",
    "437401",
    "437333",
    "438544",
    "437400",
    "436521",
    "437802",
    "436602",
    "436799",
    "437246",
    "436586",
    "436679",
    "436868",
    "436224",
    "437363",
    "437204",
    "438740",
    "437291",
    "437184",
    "437499",
    "437943",
    "435715",
    "436630",
    "436730",
    "437282",
    "435847",
    "436043",
    "436045",
    "437946",
    "437947",
    "437948",
    "435819",
    "438373",
    "436806",
    "436995",
    "436879",
    "436436",
    "437143",
    "436340",
    "436248",
    "437917",
    "437817",
    "435835",
    "436970",
    "437736",
    "438445",
    "437020",
    "436671",
    "436070",
    "437212",
    "437288",
    "436641",
    "437183",
    "436889",
    "437008",
    "435689",
    "437049",
    "437032",
    "437645",
    "437272",
    "435638",
    "436411",
    "435668",
    "435669",
    "436663",
    "435584",
    "436330",
    "437760",
    "435764",
    "436941",
    "436036",
    "435577",
    "435664",
    "435637",
    "436762",
    "435593",
    "437739",
    "435833",
    "436898",
    "435655",
    "437734",
    "437011",
    "437444",
    "437772",
    "437031",
    "436346",
    "436723",
    "435619",
    "435703",
    "436644",
    "436221",
    "436050",
    "435905",
    "435620",
    "437287",
    "436940",
    "437151",
    "437778",
    "437913",
    "436732",
    "436186",
    "436349",
    "436503",
    "437079",
    "435842",
    "435705",
    "435748",
    "442183",
    "437897",
    "435771",
    "436632",
    "436288",
    "436481",
    "435913",
    "437086",
    "437085",
    "436080",
    "436615",
    "436167",
    "435775",
    "437918",
    "435607",
    "436745",
    "436188",
    "436032",
    "437231",
    "437724",
    "437035",
    "437650",
    "442749",
    "442750",
    "436626",
    "435863",
    "436866",
    "435860",
    "436209",
    "436413",
    "437337",
    "437207",
    "437626",
    "437024",
    "438029",
    "435690",
    "437463",
    "441350",
    "435834",
    "436933",
    "436472",
    "437832",
    "437013",
    "437821",
    "436299",
    "437673",
    "436564",
    "437415",
    "436271",
    "436409",
    "436419",
    "435579",
    "437026",
    "437614",
    "437738",
    "436770",
    "437214",
    "436406",
    "437002",
    "437150",
    "436720",
    "437815",
    "437277",
    "437295",
    "437700",
    "437202",
    "437015",
    "435616",
    "436908",
    "437064",
    "436563",
    "436565",
    "436562",
    "436332",
    "435635",
    "435617",
    "436494",
    "436777",
    "435768",
    "435574",
    "435767",
    "437278",
    "437752",
    "437599",
    "435734",
    "437608",
    "436761",
    "436245",
    "435592",
    "435587",
    "436778",
    "437665",
    "436674",
    "437063",
    "436942",
    "436480",
    "435943",
    "437233",
    "437416",
    "437421",
    "435949",
    "437825",
    "437963",
    "437203",
    "435950",
    "436988",
    "437336",
    "436989",
    "435678",
    "437644",
    "436640",
    "436921",
    "436589",
    "436445",
    "436848",
    "435597",
    "437543",
    "435960",
    "437196",
    "436560",
    "435588",
    "435589",
    "436983",
    "435803",
    "437411",
    "437418",
    "436539",
    "437010",
    "437404",
    "436272",
    "435954",
    "435951",
    "436922",
    "436046",
    "437419",
    "436577",
    "436450",
    "436702",
    "436456",
    "435596",
    "436627",
    "436265",
    "435953",
    "437828",
    "436047",
    "436643",
    "437060",
    "435730",
    "435657",
    "435684",
    "436493",
    "435947",
    "437539",
    "436336",
    "437275",
    "436669",
    "437492",
    "435916",
    "437249",
    "435861",
    "436893",
    "436665",
    "436212",
    "436796",
    "437805",
    "437806",
    "437808",
    "437807",
    "435776",
    "436523"
  ]
}
